^D:\PROGRAMMS\TESTPROJECT\TESTPROJECT\TESTPROJECT.CPP
D:\PROGRAMMS\TESTPROJECT\TESTPROJECT\X64\DEBUG\VC142.PDB
D:\PROGRAMMS\TESTPROJECT\TESTPROJECT\X64\DEBUG\VC142.IDB
D:\PROGRAMMS\TESTPROJECT\TESTPROJECT\X64\DEBUG\TESTPROJECT.OBJ
